{
	"info": {
		"_postman_id": "6eb1c0f6-b191-4d87-af17-68cd5807bd3f",
		"name": "InfoSlips | Api | CreatePreProcessorRun",
		"description": "Collection of sample API Calls",
		"schema": "https://schema.getpostman.com/json/collection/v2.1.0/collection.json"
	},
	"item": [
		{
			"name": "InfoSlips.Login",
			"event": [
				{
					"listen": "test",
					"script": {
						"id": "94483db1-6a41-4df3-ae72-87f706188491",
						"exec": [
							"var jsonData = pm.response.json();",
							"",
							"pm.test(\"Status code is 200\", function () {",
							"    pm.response.to.have.status(200);",
							"});",
							"",
							"pm.test(\"Login Test\", function () {",
							"    if(jsonData.error === undefined){",
							"        pm.environment.set(\"AuthToken\", jsonData.access_token);",
							"        pm.expect(jsonData.error).to.be.an('undefined');",
							"    }else{",
							"        pm.expect(jsonData.error_description).to.be.empty;",
							"    }",
							"});",
							""
						],
						"type": "text/javascript"
					}
				}
			],
			"request": {
				"method": "POST",
				"header": [
					{
						"key": "Content-Type",
						"value": "application/x-www-form-urlencoded"
					}
				],
				"body": {
					"mode": "urlencoded",
					"urlencoded": [
						{
							"key": "username",
							"value": "{{UserName}}",
							"type": "text"
						},
						{
							"key": "password",
							"value": "{{Password}}",
							"type": "text"
						},
						{
							"key": "grant_type",
							"value": "password",
							"type": "text"
						},
						{
							"key": "client_id",
							"value": "ifscloudapp",
							"type": "text"
						}
					]
				},
				"url": {
					"raw": "{{BaseUri}}/oauth",
					"host": [
						"{{BaseUri}}"
					],
					"path": [
						"oauth"
					]
				},
				"description": "Login to InfoSlips API and return a auth token"
			},
			"response": []
		},
		{
			"name": "InfoSlips.CreateRun",
			"event": [
				{
					"listen": "test",
					"script": {
						"id": "a70ff8f1-fac6-4c4f-9f8c-6e541af2df75",
						"exec": [
							"var jsonData = pm.response.json();",
							"",
							"pm.test(\"Status code is 200\", function () {",
							"    pm.response.to.have.status(200);",
							"});",
							"",
							"pm.test(\"Create Run Test\", function () {",
							"    if(jsonData.error === undefined){",
							"        pm.environment.set(\"RunProfileId\", jsonData.Id);",
							"        pm.expect(jsonData.error).to.be.an('undefined');",
							"    }else{",
							"        pm.expect(jsonData.error_description).to.be.empty;",
							"    }",
							"});",
							""
						],
						"type": "text/javascript"
					}
				}
			],
			"request": {
				"method": "POST",
				"header": [
					{
						"key": "Authorization",
						"value": "Bearer  {{AuthToken}}"
					},
					{
						"key": "Content-Type",
						"value": "application/json"
					}
				],
				"body": {
					"mode": "raw",
					"raw": "{\n    \"Name\":\"{{RunDescription}}\",\n    \"IsTrial\":{{RunIsTrial}},\n    \"IsPukLess\":true,\n    \"RunTemplateId\":\"{{RunTemplateId}}\",\n    \"TrialOptions\":{\n        \"IsAutoTrialEnabled\":false,\n        \"RecipientSelection\":1,\n        \"UserKeyOption\":2,\n        \"FilterOutputType\":0,\n        \"SendToUser\":[\"deonh@infoslips.com\"],\n        \"RecipientList\":[]\n        }\n        \n        \n}"
				},
				"url": {
					"raw": "{{BaseUri}}/api/run/createRun",
					"host": [
						"{{BaseUri}}"
					],
					"path": [
						"api",
						"run",
						"createRun"
					]
				},
				"description": "Create Run and return RunProfileId"
			},
			"response": []
		},
		{
			"name": "InfoSlips.UploadSourceData",
			"event": [
				{
					"listen": "test",
					"script": {
						"id": "98979774-4224-4121-8aaa-27638207d099",
						"exec": [
							"var jsonData = pm.response.json();",
							"",
							"pm.test(\"Status code is 200\", function () {",
							"    pm.response.to.have.status(200);",
							"});",
							"",
							"pm.test(\"Data Upload Test\", function () {",
							"    if(jsonData.error === undefined){",
							"        pm.expect(jsonData.error).to.be.an('undefined');",
							"    }else{",
							"        pm.expect(jsonData.error_description).to.be.empty;",
							"    }",
							"});",
							""
						],
						"type": "text/javascript"
					}
				}
			],
			"request": {
				"method": "POST",
				"header": [
					{
						"key": "Authorization",
						"value": "Bearer  {{AuthToken}}"
					},
					{
						"key": "Content-Type",
						"name": "Content-Type",
						"type": "text",
						"value": "application/json"
					}
				],
				"body": {
					"mode": "formdata",
					"formdata": [
						{
							"key": "file",
							"type": "file",
							"src": "/C:/DataPath/input.csv"
						}
					]
				},
				"url": {
					"raw": "{{BaseUri}}/api/run/{{RunProfileId}}/UploadFiles/input.csv",
					"host": [
						"{{BaseUri}}"
					],
					"path": [
						"api",
						"run",
						"{{RunProfileId}}",
						"UploadFiles",
						"input.csv"
					]
				},
				"description": "Upload Source Data"
			},
			"response": []
		},
		{
			"name": "InfoSlips.StartRun",
			"event": [
				{
					"listen": "test",
					"script": {
						"id": "56383e24-8047-4266-a230-0f8c64335b3f",
						"exec": [
							"var jsonData = pm.response.json();",
							"",
							"pm.test(\"Status code is 200\", function () {",
							"    pm.response.to.have.status(200);",
							"});",
							"",
							"pm.test(\"Start Run Test\", function () {",
							"    if(jsonData.error === undefined){",
							"        pm.expect(jsonData.error).to.be.an('undefined');",
							"    }else{",
							"        pm.expect(jsonData.error_description).to.be.empty;",
							"    }",
							"});",
							""
						],
						"type": "text/javascript"
					}
				}
			],
			"request": {
				"method": "POST",
				"header": [
					{
						"key": "Authorization",
						"value": "Bearer  {{AuthToken}}"
					},
					{
						"key": "Content-Type",
						"value": "application/json"
					}
				],
				"body": {
					"mode": "raw",
					"raw": ""
				},
				"url": {
					"raw": "{{BaseUri}}/api/run/{{RunProfileId}}/startRun/{{RunIsTrial}}/0",
					"host": [
						"{{BaseUri}}"
					],
					"path": [
						"api",
						"run",
						"{{RunProfileId}}",
						"startRun",
						"{{RunIsTrial}}",
						"0"
					]
				},
				"description": "Start Run"
			},
			"response": []
		}
	],
	"protocolProfileBehavior": {}
}