{
	"id": "ad61c5bd-fb48-4e17-9eec-b684cfcf4643",
	"name": "Env_{Client}_UAT",
	"values": [
		{
			"key": "AuthToken",
			"value": "",
			"enabled": true
		},
		{
			"key": "BaseUri",
			"value": "uat-api.infoslipscloud.com",
			"enabled": true
		},
		{
			"key": "UserName",
			"value": "",
			"enabled": true
		},
		{
			"key": "Password",
			"value": "",
			"enabled": true
		},
		{
			"key": "CustomerId",
			"value": "",
			"enabled": true
		},
		{
			"key": "RunTemplateId",
			"value": "",
			"enabled": true
		},
		{
			"key": "RunProfileId",
			"value": "",
			"enabled": true
		},
		{
			"key": "RunIsTrial",
			"value": "",
			"enabled": true
		},
		{
			"key": "RunDescription",
			"value": "Sample Run Description",
			"enabled": true
		},
		{
			"key": "AdhocRunTemplateId",
			"value": "",
			"enabled": true
		},
		{
			"key": "ExternalId",
			"value": "",
			"enabled": true
		},
		{
			"key": "RunRecipientId",
			"value": "",
			"enabled": true
		},
		{
			"key": "RunRecipientSeq",
			"value": "",
			"enabled": true
		},
		{
			"key": "RunRecipientOnlineId",
			"value": "",
			"enabled": true
		},
		{
			"key": "RunRecipientPackageId",
			"value": "",
			"enabled": true
		},
		{
			"key": "EmailSubject",
			"value": "Sample Email Subject",
			"enabled": true
		},
		{
			"key": "EmailTo",
			"value": "",
			"enabled": true
		},
		{
			"key": "MobileTo",
			"value": "",
			"enabled": true
		},
		{
			"key": "SampleJsonData",
			"value": "{source:{name:\\\"Test Name\\\"}}",
			"enabled": true
		},
		{
			"key": "CallBackUser",
			"value": "",
			"enabled": true
		},
		{
			"key": "CallBackPassword",
			"value": "",
			"enabled": true
		},
		{
			"key": "CallBackUrl",
			"value": "",
			"enabled": true
		},
		{
			"key": "ExpiresInSeconds",
			"value": "",
			"enabled": true
		}
			
	],
	"_postman_variable_scope": "environment",
	"_postman_exported_at": "2020-05-04T11:26:21.212Z",
	"_postman_exported_using": "Postman/7.23.0"
}